7 Total Wet/Dry | Wet-Dry Analysis for Petrel GLS Devices
…
}

deg_files <- list.files(output.dir, pattern = "*.deg", full.names = TRUE)#[1:10] #add if you want to subset

plan(multisession, workers = 4)

deg_total_wetdry <- future_map_dfr(deg_files, calc_times)

plan(sequential)

deg_total_wetdry <- deg_total_wetdry %>%
  left_join(metrics_md %>% select(bird_id, deployment_period, colony), by = "bird_id")
deg_total_wetdry

## # A tibble: 298 × 5
##    bird_id total_time_dry total_time_wet deployment_period colony               
##    <chr>            <dbl>          <dbl> <chr>             <chr>                
##  1 BH584           163890         246510 2017-2018         Baccalieu - Ned Walsh
##  2 BH594           159400         248110 2017-2018         Baccalieu - Ned Walsh
##  3 BH595           124530         287310 2017-2018         Baccalieu - Ned Walsh
##  4 BH596           179360         228150 2017-2018         Baccalieu - Ned Walsh
##  5 BH602           159850         247670 2017-2018         Baccalieu - Ned Walsh
##  6 BH603           116480         295360 2017-2018         Baccalieu - Ned Walsh
##  7 BP488            83830         302090 2018-2019         Kent                 
##  8 BP490           105090         328350 2018-2019         Kent                 
##  9 BP491           137430         281610 2018-2019         Kent                 
## 10 BP492           119590         289370 2018-2019         Kent                 
## # ℹ 288 more rows
