2 Clean-up | wetdry_analysis
…
  select(wetdry_filename, 
         depDate_comb, retDate_comb, 
         last_active_day, 
         days_deployed, 
         days_active_before_ret, days_inactive_before_ret, 
         days_active_after_ret)

deployment_md

## # A tibble: 298 × 8
##    wetdry_filename       depDate_comb retDate_comb last_active_day days_deployed
##    <chr>                 <date>       <date>       <date>                  <dbl>
##  1 BH594_04Jul18_135310… 2017-09-20   2018-06-29   2018-07-04                283
##  2 BH596_04Jul18_134429… 2017-09-20   2018-06-29   2018-07-04                283
##  3 BH602_04Jul18_132708… 2017-09-20   2018-06-29   2018-07-04                283
##  4 BH584_04Jul18_125355… 2017-09-20   2018-07-01   2018-07-04                285
##  5 BH603_03Jul18_194628… 2017-09-19   2018-07-01   2018-07-03                286
##  6 BH595_04Jul18_131651… 2017-09-19   2018-07-01   2018-07-04                286
##  7 BU853_69W_4261-13034… 2019-08-27   2020-10-26   2021-04-19                427
##  8 BU869_77W_2461-13037… 2019-08-27   2020-11-06   2021-02-09                438
##  9 BU832_24Jul20_165309… 2019-08-27   2020-07-22   2020-07-24                331
## 10 BU847_84W_2461-13042… 2019-08-27   2020-11-05   2021-02-19                437
## # ℹ 288 more rows
## # ℹ 3 more variables: days_active_before_ret <dbl>,
## #   days_inactive_before_ret <dbl>, days_active_after_ret <dbl>
…
