4 Longest Wet/Dry Periods | wet-dry-analysis.knit
…
#define deg files to use
deg_files <- list.files(output.dir, pattern = "*.deg", full.names = TRUE) #add if you want to subset

plan(multisession, workers = 4)

# run on gull 2017-2018 files
longest_prds <- future_map_dfr(deg_files, calc_longest_prds)

longest_prds

## # A tibble: 298 × 3
##    bird_id longest_dry_time longest_wet_time
##    <chr>              <dbl>            <dbl>
##  1 BH584               4550             1140
##  2 BH594               5690              840
##  3 BH595               5800             2600
##  4 BH596               4580              920
##  5 BH602               6060             1150
##  6 BH603               7520             2300
##  7 BP488               1920             1410
##  8 BP490               4630             5800
##  9 BP491               6040             1660
## 10 BP492               7060             3780
## # ℹ 288 more rows
…
