7 Proportions Wet | Visualization
…
  return(prop_data)
}

Applying the function to our DEG files downsampled by 2hrs using sum of wets:

plan(multisession, workers = 4)

bin_time = 2

deg_props_2hrs <- future_map_dfr(deg_2hrs, calc_prop, bin_time = bin_time, .progress = TRUE)

deg_props_2hrs

## # A tibble: 1,066,147 × 6
##    bird_id date       start_time end_time  wets prop_wet
##    <chr>   <date>     <chr>      <chr>    <dbl>    <dbl>
##  1 BH584   2017-09-20 00:00:00   01:59:59     0   0     
##  2 BH584   2017-09-20 02:00:00   03:59:59     0   0     
##  3 BH584   2017-09-20 04:00:00   05:59:59    32   0.133 
##  4 BH584   2017-09-20 06:00:00   07:59:59    78   0.325 
##  5 BH584   2017-09-20 08:00:00   09:59:59    36   0.15  
##  6 BH584   2017-09-20 10:00:00   11:59:59    18   0.075 
##  7 BH584   2017-09-20 12:00:00   13:59:59    10   0.0417
##  8 BH584   2017-09-20 14:00:00   15:59:59    62   0.258 
##  9 BH584   2017-09-20 16:00:00   17:59:59    49   0.204 
## 10 BH584   2017-09-20 18:00:00   19:59:59    21   0.0875
## # ℹ 1,066,137 more rows
…
